[
    {
        "id": 1,
        "name": "Apple iPhone 14 Pro Max"
    },
    {
        "id": 2,
        "name": "Apple iPhone 14 Pro"
    },
    {
        "id": 3,
        "name": "Apple iPhone 14 Plus"
    },
    {
        "id": 4,
        "name": "Apple iPhone 14"
    }
]